{
  "page": 1,
  "total_results": 19841,
  "total_pages": 993,
  "results": [
    {
      "vote_count": 2722,
      "id": 335983,
      "video": false,
      "vote_average": 6.5,
      "title": "Venom",
      "popularity": 393.012,
      "poster_path": "/2uNW4WbgBXL25BAbXGLnLqX71Sw.jpg",
      "original_language": "en",
      "original_title": "Venom",
      "genre_ids": [
        878
      ],
      "backdrop_path": "/VuukZLgaCrho2Ar8Scl9HtV3yD.jpg",
      "adult": false,
      "overview": "Eddie Brock is a reporter—investigating people who want to go unnoticed. But after he makes a terrible discovery at the Life Foundation, he begins to transform into ‘Venom’.  The Foundation has discovered creatures called symbiotes, and believes they’re the key to the next step in human evolution. Unwittingly bonded with one, Eddie discovers he has incredible new abilities—and a voice in his head that’s telling him to embrace the darkness.",
      "release_date": "2018-10-03"
    },
    {
      "vote_count": 1765,
      "id": 338952,
      "video": false,
      "vote_average": 7,
      "title": "Fantastic Beasts: The Crimes of Grindelwald",
      "popularity": 249.669,
      "poster_path": "/uyJgTzAsp3Za2TaPiZt2yaKYRIR.jpg",
      "original_language": "en",
      "original_title": "Fantastic Beasts: The Crimes of Grindelwald",
      "genre_ids": [
        10751,
        14,
        12
      ],
      "backdrop_path": "/xgbeBCjmFpRYHDF7tQ7U98EREWp.jpg",
      "adult": false,
      "overview": "Gellert Grindelwald has escaped imprisonment and has begun gathering followers to his cause—elevating wizards above all non-magical beings. The only one capable of putting a stop to him is the wizard he once called his closest friend, Albus Dumbledore. However, Dumbledore will need to seek help from the wizard who had thwarted Grindelwald once before, his former student Newt Scamander, who agrees to help, unaware of the dangers that lie ahead. Lines are drawn as love and loyalty are tested, even among the truest friends and family, in an increasingly divided wizarding world.",
      "release_date": "2018-11-14"
    },
    {
      "vote_count": 141,
      "id": 375588,
      "video": false,
      "vote_average": 6.2,
      "title": "Robin Hood",
      "popularity": 220.001,
      "poster_path": "/AiRfixFcfTkNbn2A73qVJPlpkUo.jpg",
      "original_language": "en",
      "original_title": "Robin Hood",
      "genre_ids": [
        12,
        28
      ],
      "backdrop_path": "/AuA50D7T7S7OEVcGo0ZKaMhERn0.jpg",
      "adult": false,
      "overview": "A war-hardened Crusader and his Moorish commander mount an audacious revolt against the corrupt English crown.",
      "release_date": "2018-11-20"
    },
    {
      "vote_count": 92,
      "id": 507569,
      "video": false,
      "vote_average": 5.7,
      "title": "The Seven Deadly Sins: Prisoners of the Sky",
      "popularity": 190.569,
      "poster_path": "/r6pPUVUKU5eIpYj4oEzidk5ZibB.jpg",
      "original_language": "ja",
      "original_title": "劇場版 七つの大罪 天空の囚われ人",
      "genre_ids": [
        28,
        12,
        14,
        16
      ],
      "backdrop_path": "/uKwOX7MtKlAaGeCQe6c4jc1vZpj.jpg",
      "adult": false,
      "overview": "Traveling in search of the rare ingredient, “sky fish”  Meliodas and Hawk arrive at a palace that floats above the clouds. The people there are busy preparing a ceremony, meant to protect their home from a ferocious beast that awakens once every 3,000 years. But before the ritual is complete, the Six Knights of Black—a Demon Clan army—removes the seal on the beast, threatening the lives of everyone in the Sky Palace.",
      "release_date": "2018-08-18"
    },
    {
      "vote_count": 1825,
      "id": 424694,
      "video": false,
      "vote_average": 8.2,
      "title": "Bohemian Rhapsody",
      "popularity": 184.732,
      "poster_path": "/lHu1wtNaczFPGFDTrjCSzeLPTKN.jpg",
      "original_language": "en",
      "original_title": "Bohemian Rhapsody",
      "genre_ids": [
        18,
        10402
      ],
      "backdrop_path": "/pbXgLEYh8rlG2Km5IGZPnhcnuSz.jpg",
      "adult": false,
      "overview": "Singer Freddie Mercury, guitarist Brian May, drummer Roger Taylor and bass guitarist John Deacon take the music world by storm when they form the rock 'n' roll band Queen in 1970. Hit songs become instant classics. When Mercury's increasingly wild lifestyle starts to spiral out of control, Queen soon faces its greatest challenge yet – finding a way to keep the band together amid the success and excess.",
      "release_date": "2018-10-24"
    },
    {
      "vote_count": 1026,
      "id": 346910,
      "video": false,
      "vote_average": 5.2,
      "title": "The Predator",
      "popularity": 164.989,
      "poster_path": "/wMq9kQXTeQCHUZOG4fAe5cAxyUA.jpg",
      "original_language": "en",
      "original_title": "The Predator",
      "genre_ids": [
        878,
        28,
        53,
        12
      ],
      "backdrop_path": "/f4E0ocYeToEuXvczZv6QArrMDJ.jpg",
      "adult": false,
      "overview": "When a kid accidentally triggers the universe's most lethal hunters' return to Earth, only a ragtag crew of ex-soldiers and a disgruntled female scientist can prevent the end of the human race.",
      "release_date": "2018-09-13"
    },
    {
      "vote_count": 38,
      "id": 523873,
      "video": false,
      "vote_average": 4.2,
      "title": "Kung Fu League",
      "popularity": 158.628,
      "poster_path": "/rW0A73hjzPWVwADlCTLnjLhAFLX.jpg",
      "original_language": "zh",
      "original_title": "功夫联盟",
      "genre_ids": [
        28,
        35
      ],
      "backdrop_path": null,
      "adult": false,
      "overview": "Martial arts comedy following a group of kung fu legends banding together to take on the bad guys. The legends includes VINCENT ZHAO reprising his role as ‘Wong Fei Hung’ with DENNIS TO once again portraying ‘Wing Chun’ master ‘Ip Man’, DANNY CHAN KWOK KWAN as ‘Chen Zhen’ and ANDY ON as master ‘Huo Yuan Jia’.",
      "release_date": "2018-10-19"
    },
    {
      "vote_count": 996,
      "id": 424139,
      "video": false,
      "vote_average": 6.4,
      "title": "Halloween",
      "popularity": 134.025,
      "poster_path": "/bXs0zkv2iGVViZEy78teg2ycDBm.jpg",
      "original_language": "en",
      "original_title": "Halloween",
      "genre_ids": [
        53
      ],
      "backdrop_path": "/crn09DUYgmFUPbOroxt1tQSoi0r.jpg",
      "adult": false,
      "overview": "Laurie Strode comes to her final confrontation with Michael Myers, the masked figure who has haunted her since she narrowly escaped his killing spree on Halloween night four decades ago.",
      "release_date": "2018-10-18"
    },
    {
      "vote_count": 208,
      "id": 446894,
      "video": false,
      "vote_average": 6.6,
      "title": "Smallfoot",
      "popularity": 133.515,
      "poster_path": "/4nKoB6wMVXfsYgRZK5lHZ5VMQ6J.jpg",
      "original_language": "en",
      "original_title": "Smallfoot",
      "genre_ids": [
        35,
        16,
        10751,
        12,
        14
      ],
      "backdrop_path": "/eW2PIUIyagoYgL1Q7nu0E6EMnB3.jpg",
      "adult": false,
      "overview": "A bright young yeti finds something he thought didn't exist—a human. News of this “smallfoot” throws the simple yeti community into an uproar over what else might be out there in the big world beyond their snowy village.",
      "release_date": "2018-09-20"
    },
    {
      "vote_count": 2458,
      "id": 353081,
      "video": false,
      "vote_average": 7.2,
      "title": "Mission: Impossible - Fallout",
      "popularity": 128.126,
      "poster_path": "/AkJQpZp9WoNdj7pLYSj1L0RcMMN.jpg",
      "original_language": "en",
      "original_title": "Mission: Impossible - Fallout",
      "genre_ids": [
        28,
        53,
        12
      ],
      "backdrop_path": "/aw4FOsWr2FY373nKSxbpNi3fz4F.jpg",
      "adult": false,
      "overview": "When an IMF mission ends badly, the world is faced with dire consequences. As Ethan Hunt takes it upon himself to fulfill his original briefing, the CIA begin to question his loyalty and his motives. The IMF team find themselves in a race against time, hunted by assassins while trying to prevent a global catastrophe.",
      "release_date": "2018-07-13"
    },
    {
      "vote_count": 118,
      "id": 404368,
      "video": false,
      "vote_average": 7.5,
      "title": "Ralph Breaks the Internet",
      "popularity": 122.294,
      "poster_path": "/m110vLaDDOCca4hfOcS5mK5cDke.jpg",
      "original_language": "en",
      "original_title": "Ralph Breaks the Internet",
      "genre_ids": [
        10751,
        16
      ],
      "backdrop_path": "/ivhK1NjnFji6lD5dkAThSzd3Mgq.jpg",
      "adult": false,
      "overview": "Taking place six years following the events of the first film, the story will center on Ralph's adventures in the Internet data space when a Wi-Fi router gets plugged into the arcade as he must find a replacement part to fix Sugar Rush.",
      "release_date": "2018-11-20"
    },
    {
      "vote_count": 234,
      "id": 360920,
      "video": false,
      "vote_average": 6.3,
      "title": "The Grinch",
      "popularity": 116.497,
      "poster_path": "/lCfKAAFyANPFn04xOPqazd8jwnc.jpg",
      "original_language": "en",
      "original_title": "The Grinch",
      "genre_ids": [
        16,
        10751,
        35,
        14
      ],
      "backdrop_path": "/juc9wt7Eh2IarLL5S1yQ1a21O1A.jpg",
      "adult": false,
      "overview": "The Grinch hatches a scheme to ruin Christmas when the residents of Whoville plan their annual holiday celebration.",
      "release_date": "2018-11-08"
    },
    {
      "vote_count": 346,
      "id": 463821,
      "video": false,
      "vote_average": 6.3,
      "title": "The House with a Clock in Its Walls",
      "popularity": 108.316,
      "poster_path": "/qM66Hv4ByAxnilr0jaqCA9uOD4Y.jpg",
      "original_language": "en",
      "original_title": "The House with a Clock in Its Walls",
      "genre_ids": [
        27,
        14,
        53,
        10751,
        9648
      ],
      "backdrop_path": "/meyZ0ZZLLNaKIrvbmVpuXzZ11sD.jpg",
      "adult": false,
      "overview": "Lewis Barnavelt, a shy but indomitable ten-year-old orphan, goes to live with his uncle Jonathan, a former entertaining magician, who hides too many creepy secrets, in a creaky old house with a mysterious tick-tocking heart which Jonathan is obsessed to find with the assistance of his enigmatic next-door neighbor Mrs. Zimmerman.",
      "release_date": "2018-09-15"
    },
    {
      "vote_count": 1646,
      "id": 439079,
      "video": false,
      "vote_average": 5.7,
      "title": "The Nun",
      "popularity": 101.255,
      "poster_path": "/sFC1ElvoKGdHJIWRpNB3xWJ9lJA.jpg",
      "original_language": "en",
      "original_title": "The Nun",
      "genre_ids": [
        27,
        9648,
        53
      ],
      "backdrop_path": "/fgsHxz21B27hOOqQBiw9L6yWcM7.jpg",
      "adult": false,
      "overview": "When a young nun at a cloistered abbey in Romania takes her own life, a priest with a haunted past and a novitiate on the threshold of her final vows are sent by the Vatican to investigate. Together they uncover the order’s unholy secret. Risking not only their lives but their faith and their very souls, they confront a malevolent force in the form of the same demonic nun that first terrorized audiences in “The Conjuring 2” as the abbey becomes a horrific battleground between the living and the damned.",
      "release_date": "2018-09-05"
    },
    {
      "vote_count": 9678,
      "id": 299536,
      "video": false,
      "vote_average": 8.3,
      "title": "Avengers: Infinity War",
      "popularity": 99.137,
      "poster_path": "/7WsyChQLEftFiDOVTGkv3hFpyyt.jpg",
      "original_language": "en",
      "original_title": "Avengers: Infinity War",
      "genre_ids": [
        12,
        878,
        28,
        14
      ],
      "backdrop_path": "/bOGkgRGdhrBYJSLpXaxhXVstddV.jpg",
      "adult": false,
      "overview": "As the Avengers and their allies have continued to protect the world from threats too large for any one hero to handle, a new danger has emerged from the cosmic shadows: Thanos. A despot of intergalactic infamy, his goal is to collect all six Infinity Stones, artifacts of unimaginable power, and use them to inflict his twisted will on all of reality. Everything the Avengers have fought for has led up to this moment - the fate of Earth and existence itself has never been more uncertain.",
      "release_date": "2018-04-25"
    },
    {
      "vote_count": 273,
      "id": 454293,
      "video": false,
      "vote_average": 6.2,
      "title": "Night School",
      "popularity": 98.854,
      "poster_path": "/1NSMAaBPSbWv7sGmF8oLGMNb8Qm.jpg",
      "original_language": "en",
      "original_title": "Night School",
      "genre_ids": [
        35
      ],
      "backdrop_path": "/jJBimY3DXIaIaL4NeGHfR0U0rSh.jpg",
      "adult": false,
      "overview": "Teddy Walker is a successful salesman whose life takes an unexpected turn when he accidentally blows up his place of employment. Forced to attend night school to get his GED, Teddy soon finds himself dealing with a group of misfit students, his former high school nemesis and a feisty teacher who doesn't think he's too bright.",
      "release_date": "2018-09-27"
    },
    {
      "vote_count": 1174,
      "id": 345887,
      "video": false,
      "vote_average": 6.3,
      "title": "The Equalizer 2",
      "popularity": 93.052,
      "poster_path": "/cQvc9N6JiMVKqol3wcYrGshsIdZ.jpg",
      "original_language": "en",
      "original_title": "The Equalizer 2",
      "genre_ids": [
        53,
        28,
        80
      ],
      "backdrop_path": "/z7noaCJ4KtmhwHw7QcNtnMMo4Qy.jpg",
      "adult": false,
      "overview": "Robert McCall, who serves an unflinching justice for the exploited and oppressed, embarks on a relentless, globe-trotting quest for vengeance when a long-time girl friend is murdered.",
      "release_date": "2018-07-19"
    },
    {
      "vote_count": 3603,
      "id": 363088,
      "video": false,
      "vote_average": 7,
      "title": "Ant-Man and the Wasp",
      "popularity": 85.387,
      "poster_path": "/rv1AWImgx386ULjcf62VYaW8zSt.jpg",
      "original_language": "en",
      "original_title": "Ant-Man and the Wasp",
      "genre_ids": [
        28,
        12,
        878,
        35,
        10751
      ],
      "backdrop_path": "/6P3c80EOm7BodndGBUAJHHsHKrp.jpg",
      "adult": false,
      "overview": "Just when his time under house arrest is about to end, Scott Lang puts again his freedom at risk to help Hope van Dyne and Dr. Hank Pym dive into the quantum realm and try to accomplish, against time and any chance of success, a very dangerous rescue mission.",
      "release_date": "2018-07-04"
    },
    {
      "vote_count": 1801,
      "id": 345940,
      "video": false,
      "vote_average": 5.9,
      "title": "The Meg",
      "popularity": 81.256,
      "poster_path": "/eyWICPcxOuTcDDDbTMOZawoOn8d.jpg",
      "original_language": "en",
      "original_title": "The Meg",
      "genre_ids": [
        28,
        878,
        53
      ],
      "backdrop_path": "/2uSCHUsmzb6KkQPFSxBQ7bgfJLE.jpg",
      "adult": false,
      "overview": "A deep sea submersible pilot revisits his past fears in the Mariana Trench, and accidentally unleashes the seventy foot ancestor of the Great White Shark believed to be extinct.",
      "release_date": "2018-08-09"
    },
    {
      "vote_count": 1974,
      "id": 332562,
      "video": false,
      "vote_average": 7.4,
      "title": "A Star Is Born",
      "popularity": 80.487,
      "poster_path": "/wrFpXMNBRj2PBiN4Z5kix51XaIZ.jpg",
      "original_language": "en",
      "original_title": "A Star Is Born",
      "genre_ids": [
        18,
        10402,
        10749
      ],
      "backdrop_path": "/840rbblaLc4SVxm8gF3DNdJ0YAE.jpg",
      "adult": false,
      "overview": "Seasoned musician Jackson Maine discovers—and falls in love with—struggling artist Ally. She has just about given up on her dream to make it big as a singer—until Jack coaxes her into the spotlight. But even as Ally's career takes off, the personal side of their relationship is breaking down, as Jack fights an ongoing battle with his own internal demons.",
      "release_date": "2018-10-03"
    }
  ]
}